# 3
# 4
9.4800981506689030454
6.4129824574210934074
1.1691412064460882103
7.0724708770573005978
7.7129980536637807731
6.8817061460791322247
7.2656242143392315569
6.7635131238869794501
2.0835374251632665654
3.2845675928296635959
9.0624426109463875889
8.527516066560572483
